%YAML 1.1
%TAG !u! tag:unity3d.com,2011:
--- !u!74 &7400000
AnimationClip:
  m_ObjectHideFlags: 0
  m_CorrespondingSourceObject: {fileID: 0}
  m_PrefabInstance: {fileID: 0}
  m_PrefabAsset: {fileID: 0}
  m_Name: explosion
  serializedVersion: 6
  m_Legacy: 0
  m_Compressed: 0
  m_UseHighQualityCurve: 1
  m_RotationCurves: []
  m_CompressedRotationCurves: []
  m_EulerCurves: []
  m_PositionCurves: []
  m_ScaleCurves: []
  m_FloatCurves: []
  m_PPtrCurves:
  - curve:
    - time: 0
      value: {fileID: 3397380135578257017, guid: 9e892ed841c050346a7b0cfadce6b671,
        type: 3}
    - time: 0.05
      value: {fileID: -4908853730773065952, guid: 9e892ed841c050346a7b0cfadce6b671,
        type: 3}
    - time: 0.1
      value: {fileID: 3730887761424324059, guid: 9e892ed841c050346a7b0cfadce6b671,
        type: 3}
    - time: 0.15
      value: {fileID: 3798828067823677296, guid: 9e892ed841c050346a7b0cfadce6b671,
        type: 3}
    - time: 0.2
      value: {fileID: -630432221213142861, guid: 9e892ed841c050346a7b0cfadce6b671,
        type: 3}
    - time: 0.25
      value: {fileID: 7462486192874318990, guid: 9e892ed841c050346a7b0cfadce6b671,
        type: 3}
    - time: 0.3
      value: {fileID: -2444293902188861230, guid: 9e892ed841c050346a7b0cfadce6b671,
        type: 3}
    attribute: m_Sprite
    path: 
    classID: 212
    script: {fileID: 0}
  m_SampleRate: 60
  m_WrapMode: 0
  m_Bounds:
    m_Center: {x: 0, y: 0, z: 0}
    m_Extent: {x: 0, y: 0, z: 0}
  m_ClipBindingConstant:
    genericBindings:
    - serializedVersion: 2
      path: 0
      attribute: 0
      script: {fileID: 0}
      typeID: 212
      customType: 23
      isPPtrCurve: 1
    pptrCurveMapping:
    - {fileID: 3397380135578257017, guid: 9e892ed841c050346a7b0cfadce6b671, type: 3}
    - {fileID: -4908853730773065952, guid: 9e892ed841c050346a7b0cfadce6b671, type: 3}
    - {fileID: 3730887761424324059, guid: 9e892ed841c050346a7b0cfadce6b671, type: 3}
    - {fileID: 3798828067823677296, guid: 9e892ed841c050346a7b0cfadce6b671, type: 3}
    - {fileID: -630432221213142861, guid: 9e892ed841c050346a7b0cfadce6b671, type: 3}
    - {fileID: 7462486192874318990, guid: 9e892ed841c050346a7b0cfadce6b671, type: 3}
    - {fileID: -2444293902188861230, guid: 9e892ed841c050346a7b0cfadce6b671, type: 3}
  m_AnimationClipSettings:
    serializedVersion: 2
    m_AdditiveReferencePoseClip: {fileID: 0}
    m_AdditiveReferencePoseTime: 0
    m_StartTime: 0
    m_StopTime: 0.3166667
    m_OrientationOffsetY: 0
    m_Level: 0
    m_CycleOffset: 0
    m_HasAdditiveReferencePose: 0
    m_LoopTime: 1
    m_LoopBlend: 0
    m_LoopBlendOrientation: 0
    m_LoopBlendPositionY: 0
    m_LoopBlendPositionXZ: 0
    m_KeepOriginalOrientation: 0
    m_KeepOriginalPositionY: 1
    m_KeepOriginalPositionXZ: 0
    m_HeightFromFeet: 0
    m_Mirror: 0
  m_EditorCurves: []
  m_EulerEditorCurves: []
  m_HasGenericRootTransform: 0
  m_HasMotionFloatCurves: 0
  m_Events: []
